{
  "uuid": "d3117efa-deef-470c-bf47-cc54316e4929",
  "lastMigration": 32,
  "name": "Opportunities",
  "endpointPrefix": "",
  "latency": 0,
  "port": 3002,
  "hostname": "",
  "folders": [],
  "routes": [
    {
      "uuid": "2186dde0-0551-45ee-90ce-7a648cb7753a",
      "type": "http",
      "documentation": "",
      "method": "get",
      "endpoint": "opportunities",
      "responses": [
        {
          "uuid": "ab0a9ca9-2d05-4916-b355-08c28a333e91",
          "body": "{\r\n    \"currentPage\": 1,\r\n    \"itemsPerPage\": 25,\r\n    \"totalItems\": 100,\r\n    \"totalPages\": 4,\r\n    \"opportunities\": [\r\n      {\r\n        \"id\": \"1\",\r\n        \"title\": \"Volunteer at a Food Bank\",\r\n        \"description\": \"Help distribute food to those in need.\",\r\n        \"location\": \"Paris, France\",\r\n        \"start_date\": \"2024-08-01\",\r\n        \"end_date\": \"2024-08-31\",\r\n        \"requirements\": \"No experience required.\",\r\n        \"org_id\": 123,\r\n        \"created_at\": \"2024-07-10T12:34:56Z\",\r\n        \"updated_at\": \"2024-07-10T12:34:56Z\"\r\n      },\r\n      {\r\n        \"id\": \"2\",\r\n        \"title\": \"Volunteer at a Food Bank\",\r\n        \"description\": \"Help distribute food to those in need.\",\r\n        \"location\": \"Paris, France\",\r\n        \"start_date\": \"2024-08-01\",\r\n        \"end_date\": \"2024-08-31\",\r\n        \"requirements\": \"No experience required.\",\r\n        \"org_id\": 123,\r\n        \"created_at\": \"2024-07-10T12:34:56Z\",\r\n        \"updated_at\": \"2024-07-10T12:34:56Z\"\r\n      },\r\n      {\r\n        \"id\": \"3\",\r\n        \"title\": \"Volunteer at a Food Bank\",\r\n        \"description\": \"Help distribute food to those in need.\",\r\n        \"location\": \"Paris, France\",\r\n        \"start_date\": \"2024-08-01\",\r\n        \"end_date\": \"2024-08-31\",\r\n        \"requirements\": \"No experience required.\",\r\n        \"org_id\": 123,\r\n        \"created_at\": \"2024-07-10T12:34:56Z\",\r\n        \"updated_at\": \"2024-07-10T12:34:56Z\"\r\n      }\r\n    ]\r\n  }\r\n  ",
          "latency": 0,
          "statusCode": 200,
          "label": "",
          "headers": [
            {
              "key": "",
              "value": ""
            }
          ],
          "bodyType": "INLINE",
          "filePath": "",
          "databucketID": "",
          "sendFileAsBody": false,
          "rules": [],
          "rulesOperator": "OR",
          "disableTemplating": false,
          "fallbackTo404": false,
          "default": true,
          "crudKey": "id",
          "callbacks": []
        }
      ],
      "responseMode": null
    }
  ],
  "rootChildren": [
    {
      "type": "route",
      "uuid": "2186dde0-0551-45ee-90ce-7a648cb7753a"
    }
  ],
  "proxyMode": false,
  "proxyHost": "",
  "proxyRemovePrefix": false,
  "tlsOptions": {
    "enabled": false,
    "type": "CERT",
    "pfxPath": "",
    "certPath": "",
    "keyPath": "",
    "caPath": "",
    "passphrase": ""
  },
  "cors": true,
  "headers": [
    {
      "key": "Content-Type",
      "value": "application/json"
    },
    {
      "key": "Access-Control-Allow-Origin",
      "value": "*"
    },
    {
      "key": "Access-Control-Allow-Methods",
      "value": "GET,POST,PUT,PATCH,DELETE,HEAD,OPTIONS"
    },
    {
      "key": "Access-Control-Allow-Headers",
      "value": "Content-Type, Origin, Accept, Authorization, Content-Length, X-Requested-With"
    }
  ],
  "proxyReqHeaders": [
    {
      "key": "",
      "value": ""
    }
  ],
  "proxyResHeaders": [
    {
      "key": "",
      "value": ""
    }
  ],
  "data": [],
  "callbacks": []
}